<svg width="19" height="22" viewBox="0 0 19 22" fill="none" xmlns="http://www.w3.org/2000/svg">
<path d="M1.5238 11.1071V18.7738C1.5238 19.8323 2.40058 20.6905 3.48214 20.6905H15.2321C16.3137 20.6905 17.1905 19.8323 17.1905 18.7738V11.1071" stroke="#2AB3C6" stroke-width="2" stroke-linecap="round" stroke-linejoin="round"/>
<path d="M13.2738 5.35714L9.3571 1.5238L5.44043 5.35714" stroke="#2AB3C6" stroke-width="2" stroke-linecap="round" stroke-linejoin="round"/>
<path d="M9.35718 1.5238V13.9821" stroke="#2AB3C6" stroke-width="2" stroke-linecap="round" stroke-linejoin="round"/>
</svg>
